digraph "Graphical Class Hierarchy"
{
  edge [fontname="Helvetica",fontsize="10",labelfontname="Helvetica",labelfontsize="10"];
  node [fontname="Helvetica",fontsize="10",shape=record];
  rankdir="LR";
  Node1 [label="ArrayObserver\< T \>",height=0.2,width=0.4,color="black", fillcolor="white", style="filled",URL="$classArrayObserver.html",tooltip="This class models an abstract observer for arrays. "];
  Node1 -> Node2 [dir="back",color="midnightblue",fontsize="10",style="solid",fontname="Helvetica"];
  Node2 [label="PrintingObserver\< T \>",height=0.2,width=0.4,color="black", fillcolor="white", style="filled",URL="$classPrintingObserver.html",tooltip="This class models an concrete observer for arrays printing information regarding performed operations..."];
}
